What the Package Does (Title Case) • FriendsScripts
…
2. line count by episode

friends_lines %>% filter(type %in% c("person", "scene")) %>% count(episodes_id) %>% arrange(n)
#> # A tibble: 228 x 2
#>    episodes_id     n
#>    <chr>       <int>
#>  1 0911            2
#>  2 07            189
#>  3 0203          199
#>  4 0114          206
#>  5 0904          212
#>  6 0224          214
#>  7 0202          217
#>  8 0712          217
#>  9 0207          221
#> 10 0411          224
#> # ... with 218 more rows
…
